intelFPGA_lite/ly_2257_1/simulation/qsim/ly_2257_1.msim.vcd
$comment
	File created using the following command:
		vcd file ly_2257_1.msim.vcd -direction
$end
$date
	Tue Oct 12 19:46:44 2021
$end
$version
	ModelSim Version 10.5b
$end
$timescale
	1ps
$end

$scope module ly_2257_1_vlg_vec_tst $end
$var reg 4 ! din [3:0] $end
$var wire 1 " dout [7] $end
$var wire 1 # dout [6] $end
$var wire 1 $ dout [5] $end
$var wire 1 % dout [4] $end
$var wire 1 & dout [3] $end
$var wire 1 ' dout [2] $end
$var wire 1 ( dout [1] $end
$var wire 1 ) dout [0] $end
$var wire 1 * seg $end

$scope module i1 $end
$var wire 1 + gnd $end
$var wire 1 , vcc $end
$var wire 1 - unknown $end
$var tri1 1 . devclrn $end
$var tri1 1 / devpor $end
$var tri1 1 0 devoe $end
$var wire 1 1 dout[0]~output_o $end
$var wire 1 2 dout[1]~output_o $end
$var wire 1 3 dout[2]~output_o $end
$var wire 1 4 dout[3]~output_o $end
$var wire 1 5 dout[4]~output_o $end
$var wire 1 6 dout[5]~output_o $end
$var wire 1 7 dout[6]~output_o $end
$var wire 1 8 dout[7]~output_o $end
$var wire 1 9 seg~output_o $end
$var wire 1 : din[0]~input_o $end
$var wire 1 ; din[1]~input_o $end
$var wire 1 < din[2]~input_o $end
$var wire 1 = din[3]~input_o $end
$var wire 1 > WideOr6~0_combout $end
$var wire 1 ? WideOr5~0_combout $end
$var wire 1 @ WideOr4~0_combout $end
$var wire 1 A WideOr3~0_combout $end
$var wire 1 B WideOr2~0_combout $end
$var wire 1 C WideOr1~0_combout $end
$var wire 1 D WideOr0~0_combout $end
$var wire 1 E dout~0_combout $end
$upscope $end
$upscope $end
$enddefinitions $end
#0
$dumpvars
b0 !
0)
0(
0'
0&
0%
0$
0#
0"
1*
0+
1,
x-
1.
1/
10
01
02
03
04
05
06
07
08
19
0:
0;
0<
0=
0>
0?
0@
0A
0B
0C
0D
0E
$end
#10000
b1 !
1:
1>
11
1)
#20000
b11 !
b10 !
0:
1;
1?
0>
01
12
1(
0)
#30000
b11 !
1:
1@
0?
02
13
1'
0(
#40000
b111 !
b101 !
b100 !
0:
0;
1<
1A
0@
03
14
1&
0'
#50000
b101 !
1:
1B
0A
04
15
1%
0&
#60000
b111 !
b110 !
0:
1;
1C
0B
05
16
1$
0%
#70000
b111 !
1:
1D
0C
06
17
1#
0$
#80000
b1111 !
b1011 !
b1001 !
b1000 !
0:
0;
0<
1=
1E
0D
07
18
1"
0#
#90000
b1001 !
1:
0E
1?
1>
11
12
08
0"
1(
1)
#100000
b1011 !
b1010 !
0:
1;
1@
13
1'
#110000
b1011 !
1:
1A
14
1&
#120000
b1111 !
b1101 !
b1100 !
0:
0;
1<
1B
15
1%
#130000
b1101 !
1:
1C
16
1$
#140000
b1111 !
b1110 !
0:
1;
1D
17
1#
#150000
b1111 !
1:
1E
18
1"
#160000
b111 !
b11 !
b1 !
b0 !
0:
0;
0<
0=
0E
0D
0C
0B
0A
0@
0?
0>
01
02
03
04
05
06
07
08
0"
0#
0$
0%
0&
0'
0(
0)
#170000
b1 !
1:
1>
11
1)
#180000
b11 !
b10 !
0:
1;
1?
0>
01
12
1(
0)
#190000
b11 !
1:
1@
0?
02
13
1'
0(
#200000
b111 !
b101 !
b100 !
0:
0;
1<
1A
0@
03
14
1&
0'
#210000
b101 !
1:
1B
0A
04
15
1%
0&
#220000
b111 !
b110 !
0:
1;
1C
0B
05
16
1$
0%
#230000
b111 !
1:
1D
0C
06
17
1#
0$
#240000
b1111 !
b1011 !
b1001 !
b1000 !
0:
0;
0<
1=
1E
0D
07
18
1"
0#
#250000
b1001 !
1:
0E
1?
1>
11
12
08
0"
1(
1)
#260000
b1011 !
b1010 !
0:
1;
1@
13
1'
#270000
b1011 !
1:
1A
14
1&
#280000
b1111 !
b1101 !
b1100 !
0:
0;
1<
1B
15
1%
#290000
b1101 !
1:
1C
16
1$
#300000
b1111 !
b1110 !
0:
1;
1D
17
1#
#310000
b1111 !
1:
1E
18
1"
#320000
b111 !
b11 !
b1 !
b0 !
0:
0;
0<
0=
0E
0D
0C
0B
0A
0@
0?
0>
01
02
03
04
05
06
07
08
0"
0#
0$
0%
0&
0'
0(
0)
#330000
b1 !
1:
1>
11
1)
#340000
b11 !
b10 !
0:
1;
1?
0>
01
12
1(
0)
#350000
b11 !
1:
1@
0?
02
13
1'
0(
#360000
b111 !
b101 !
b100 !
0:
0;
1<
1A
0@
03
14
1&
0'
#370000
b101 !
1:
1B
0A
04
15
1%
0&
#380000
b111 !
b110 !
0:
1;
1C
0B
05
16
1$
0%
#390000
b111 !
1:
1D
0C
06
17
1#
0$
#400000
b1111 !
b1011 !
b1001 !
b1000 !
0:
0;
0<
1=
1E
0D
07
18
1"
0#
#410000
b1001 !
1:
0E
1?
1>
11
12
08
0"
1(
1)
#420000
b1011 !
b1010 !
0:
1;
1@
13
1'
#430000
b1011 !
1:
1A
14
1&
#440000
b1111 !
b1101 !
b1100 !
0:
0;
1<
1B
15
1%
#450000
b1101 !
1:
1C
16
1$
#460000
b1111 !
b1110 !
0:
1;
1D
17
1#
#470000
b1111 !
1:
1E
18
1"
#480000
b111 !
b11 !
b1 !
b0 !
0:
0;
0<
0=
0E
0D
0C
0B
0A
0@
0?
0>
01
02
03
04
05
06
07
08
0"
0#
0$
0%
0&
0'
0(
0)
#490000
b1 !
1:
1>
11
1)
#500000
b11 !
b10 !
0:
1;
1?
0>
01
12
1(
0)
#510000
b11 !
1:
1@
0?
02
13
1'
0(
#520000
b111 !
b101 !
b100 !
0:
0;
1<
1A
0@
03
14
1&
0'
#530000
b101 !
1:
1B
0A
04
15
1%
0&
#540000
b111 !
b110 !
0:
1;
1C
0B
05
16
1$
0%
#550000
b111 !
1:
1D
0C
06
17
1#
0$
#560000
b1111 !
b1011 !
b1001 !
b1000 !
0:
0;
0<
1=
1E
0D
07
18
1"
0#
#570000
b1001 !
1:
0E
1?
1>
11
12
08
0"
1(
1)
#580000
b1011 !
b1010 !
0:
1;
1@
13
1'
#590000
b1011 !
1:
1A
14
1&
#600000
b1111 !
b1101 !
b1100 !
0:
0;
1<
1B
15
1%
#610000
b1101 !
1:
1C
16
1$
#620000
b1111 !
b1110 !
0:
1;
1D
17
1#
#630000
b1111 !
1:
1E
18
1"
#640000
b111 !
b11 !
b1 !
b0 !
0:
0;
0<
0=
0E
0D
0C
0B
0A
0@
0?
0>
01
02
03
04
05
06
07
08
0"
0#
0$
0%
0&
0'
0(
0)
#650000
b1 !
1:
1>
11
1)
#660000
b11 !
b10 !
0:
1;
1?
0>
01
12
1(
0)
#670000
b11 !
1:
1@
0?
02
13
1'
0(
#680000
b111 !
b101 !
b100 !
0:
0;
1<
1A
0@
03
14
1&
0'
#690000
b101 !
1:
1B
0A
04
15
1%
0&
#700000
b111 !
b110 !
0:
1;
1C
0B
05
16
1$
0%
#710000
b111 !
1:
1D
0C
06
17
1#
0$
#720000
b1111 !
b1011 !
b1001 !
b1000 !
0:
0;
0<
1=
1E
0D
07
18
1"
0#
#730000
b1001 !
1:
0E
1?
1>
11
12
08
0"
1(
1)
#740000
b1011 !
b1010 !
0:
1;
1@
13
1'
#750000
b1011 !
1:
1A
14
1&
#760000
b1111 !
b1101 !
b1100 !
0:
0;
1<
1B
15
1%
#770000
b1101 !
1:
1C
16
1$
#780000
b1111 !
b1110 !
0:
1;
1D
17
1#
#790000
b1111 !
1:
1E
18
1"
#800000
b111 !
b11 !
b1 !
b0 !
0:
0;
0<
0=
0E
0D
0C
0B
0A
0@
0?
0>
01
02
03
04
05
06
07
08
0"
0#
0$
0%
0&
0'
0(
0)
#810000
b1 !
1:
1>
11
1)
#820000
b11 !
b10 !
0:
1;
1?
0>
01
12
1(
0)
#830000
b11 !
1:
1@
0?
02
13
1'
0(
#840000
b111 !
b101 !
b100 !
0:
0;
1<
1A
0@
03
14
1&
0'
#850000
b101 !
1:
1B
0A
04
15
1%
0&
#860000
b111 !
b110 !
0:
1;
1C
0B
05
16
1$
0%
#870000
b111 !
1:
1D
0C
06
17
1#
0$
#880000
b1111 !
b1011 !
b1001 !
b1000 !
0:
0;
0<
1=
1E
0D
07
18
1"
0#
#890000
b1001 !
1:
0E
1?
1>
11
12
08
0"
1(
1)
#900000
b1011 !
b1010 !
0:
1;
1@
13
1'
#910000
b1011 !
1:
1A
14
1&
#920000
b1111 !
b1101 !
b1100 !
0:
0;
1<
1B
15
1%
#930000
b1101 !
1:
1C
16
1$
#940000
b1111 !
b1110 !
0:
1;
1D
17
1#
#950000
b1111 !
1:
1E
18
1"
#960000
b111 !
b11 !
b1 !
b0 !
0:
0;
0<
0=
0E
0D
0C
0B
0A
0@
0?
0>
01
02
03
04
05
06
07
08
0"
0#
0$
0%
0&
0'
0(
0)
#970000
b1 !
1:
1>
11
1)
#980000
b11 !
b10 !
0:
1;
1?
0>
01
12
1(
0)
#990000
b11 !
1:
1@
0?
02
13
1'
0(
