intelFPGA_lite/ly_2257_2/simulation/qsim/ly_2257_2.msim.vcd
$comment
	File created using the following command:
		vcd file ly_2257_2.msim.vcd -direction
$end
$date
	Tue Oct 19 20:22:42 2021
$end
$version
	ModelSim Version 10.5b
$end
$timescale
	1ps
$end

$scope module ly_2257_2_vlg_vec_tst $end
$var reg 1 ! clk $end
$var reg 1 " en $end
$var wire 1 # Q [2] $end
$var wire 1 $ Q [1] $end
$var wire 1 % Q [0] $end
$var wire 1 & codeout [6] $end
$var wire 1 ' codeout [5] $end
$var wire 1 ( codeout [4] $end
$var wire 1 ) codeout [3] $end
$var wire 1 * codeout [2] $end
$var wire 1 + codeout [1] $end
$var wire 1 , codeout [0] $end

$scope module i1 $end
$var wire 1 - gnd $end
$var wire 1 . vcc $end
$var wire 1 / unknown $end
$var tri1 1 0 devclrn $end
$var tri1 1 1 devpor $end
$var tri1 1 2 devoe $end
$var wire 1 3 Q[0]~output_o $end
$var wire 1 4 Q[1]~output_o $end
$var wire 1 5 Q[2]~output_o $end
$var wire 1 6 codeout[0]~output_o $end
$var wire 1 7 codeout[1]~output_o $end
$var wire 1 8 codeout[2]~output_o $end
$var wire 1 9 codeout[3]~output_o $end
$var wire 1 : codeout[4]~output_o $end
$var wire 1 ; codeout[5]~output_o $end
$var wire 1 < codeout[6]~output_o $end
$var wire 1 = clk~input_o $end
$var wire 1 > clk~inputclkctrl_outclk $end
$var wire 1 ? a|Q~2_combout $end
$var wire 1 @ en~input_o $end
$var wire 1 A a|Q~1_combout $end
$var wire 1 B a|Q~0_combout $end
$var wire 1 C b|Mux2~0_combout $end
$var wire 1 D b|Mux2~1_combout $end
$var wire 1 E b|Mux1~0_combout $end
$var wire 1 F b|Mux0~0_combout $end
$var wire 1 G b|Decoder0~0_combout $end
$var wire 1 H a|Q [2] $end
$var wire 1 I a|Q [1] $end
$var wire 1 J a|Q [0] $end
$upscope $end
$upscope $end
$enddefinitions $end
#0
$dumpvars
0!
0"
0%
0$
0#
0,
0+
0*
0)
0(
0'
0&
0-
1.
x/
10
11
12
03
04
05
06
07
08
09
0:
0;
0<
0=
0>
0?
0@
0A
1B
1C
1D
0E
0F
0G
0J
0I
0H
$end
#20000
1"
1!
1@
1=
1>
1J
13
0C
1%
0B
1A
16
1,
#40000
0"
0!
0@
0=
0>
#60000
1"
1!
1@
1=
1>
0J
1I
14
03
0D
0%
1$
1B
17
1+
#80000
0"
0!
0@
0=
0>
#100000
1"
1!
1@
1=
1>
1J
13
1%
1E
0B
0A
1?
18
1*
#120000
0"
0!
0@
0=
0>
#140000
1"
1!
1@
1=
1>
0J
0I
1H
15
19
04
03
0%
0$
1)
1#
1B
#160000
0"
0!
0@
0=
0>
#180000
1"
1!
1@
1=
1>
1J
13
1%
1F
0B
1A
1:
1(
#200000
0"
0!
0@
0=
0>
#220000
1"
1!
1@
1=
1>
0J
1I
14
03
0%
1$
0A
0?
1G
1;
1'
#240000
0"
0!
0@
0=
0>
#260000
1"
1!
1@
1=
1>
0I
0H
05
09
04
1D
1C
0$
0)
0#
0G
0F
0E
1B
08
0:
0;
06
07
0+
0,
0'
0(
0*
#280000
0"
0!
0@
0=
0>
#300000
1"
1!
1@
1=
1>
1J
13
0C
1%
0B
1A
16
1,
#320000
0"
0!
0@
0=
0>
#340000
1"
1!
1@
1=
1>
0J
1I
14
03
0D
0%
1$
1B
17
1+
#360000
0"
0!
0@
0=
0>
#380000
1"
1!
1@
1=
1>
1J
13
1%
1E
0B
0A
1?
18
1*
#400000
0"
0!
0@
0=
0>
#420000
1"
1!
1@
1=
1>
0J
0I
1H
15
19
04
03
0%
0$
1)
1#
1B
#440000
0"
0!
0@
0=
0>
#460000
1"
1!
1@
1=
1>
1J
13
1%
1F
0B
1A
1:
1(
#480000
0"
0!
0@
0=
0>
#500000
1"
1!
1@
1=
1>
0J
1I
14
03
0%
1$
0A
0?
1G
1;
1'
#520000
0"
0!
0@
0=
0>
#540000
1"
1!
1@
1=
1>
0I
0H
05
09
04
1D
1C
0$
0)
0#
0G
0F
0E
1B
08
0:
0;
06
07
0+
0,
0'
0(
0*
#560000
0"
0!
0@
0=
0>
#580000
1"
1!
1@
1=
1>
1J
13
0C
1%
0B
1A
16
1,
#600000
0"
0!
0@
0=
0>
#620000
1"
1!
1@
1=
1>
0J
1I
14
03
0D
0%
1$
1B
17
1+
#640000
0"
0!
0@
0=
0>
#660000
1"
1!
1@
1=
1>
1J
13
1%
1E
0B
0A
1?
18
1*
#680000
0"
0!
0@
0=
0>
#700000
1"
1!
1@
1=
1>
0J
0I
1H
15
19
04
03
0%
0$
1)
1#
1B
#720000
0"
0!
0@
0=
0>
#740000
1"
1!
1@
1=
1>
1J
13
1%
1F
0B
1A
1:
1(
#760000
0"
0!
0@
0=
0>
#780000
1"
1!
1@
1=
1>
0J
1I
14
03
0%
1$
0A
0?
1G
1;
1'
#800000
0"
0!
0@
0=
0>
#820000
1"
1!
1@
1=
1>
0I
0H
05
09
04
1D
1C
0$
0)
0#
0G
0F
0E
1B
08
0:
0;
06
07
0+
0,
0'
0(
0*
#840000
0"
0!
0@
0=
0>
#860000
1"
1!
1@
1=
1>
1J
13
0C
1%
0B
1A
16
1,
#880000
0"
0!
0@
0=
0>
#900000
1"
1!
1@
1=
1>
0J
1I
14
03
0D
0%
1$
1B
17
1+
#920000
0"
0!
0@
0=
0>
#940000
1"
1!
1@
1=
1>
1J
13
1%
1E
0B
0A
1?
18
1*
#960000
0"
0!
0@
0=
0>
#980000
1"
1!
1@
1=
1>
0J
0I
1H
15
19
04
03
0%
0$
1)
1#
1B
